(export (version D)
  (design
    (source E:\CAD\deskfan\ee\board-1\board-1.sch)
    (date "07/07/2019 10:38:49")
    (tool "Eeschema (5.1.2)-2")
    (sheet (number 1) (name /) (tstamps /)
      (title_block
        (title)
        (company)
        (rev)
        (date)
        (source board-1.sch)
        (comment (number 1) (value ""))
        (comment (number 2) (value ""))
        (comment (number 3) (value ""))
        (comment (number 4) (value "")))))
  (components
    (comp (ref U1)
      (value ATtiny25V-10SU)
      (footprint Package_SO:SOIJ-8_5.3x5.3mm_P1.27mm)
      (datasheet http://ww1.microchip.com/downloads/en/DeviceDoc/atmel-2586-avr-8-bit-microcontroller-attiny25-attiny45-attiny85_datasheet.pdf)
      (libsource (lib Attiny85_Arduino) (part ATtiny25V-10SU_Arduino) (description "10MHz, 2kB Flash, 128B SRAM, 128B EEPROM, debugWIRE, SOIJ-8"))
      (sheetpath (names /) (tstamps /))
      (tstamp 5D21F3E6))
    (comp (ref BT1)
      (value Battery)
      (footprint Connector_PinHeader_2.54mm:PinHeader_1x02_P2.54mm_Horizontal)
      (datasheet ~)
      (libsource (lib Device) (part Battery) (description "Multiple-cell battery"))
      (sheetpath (names /) (tstamps /))
      (tstamp 5D2648CC))
    (comp (ref C1)
      (value 10uF)
      (footprint Capacitor_SMD:C_2010_5025Metric_Pad1.52x2.65mm_HandSolder)
      (datasheet ~)
      (libsource (lib Device) (part CP) (description "Polarized capacitor"))
      (sheetpath (names /) (tstamps /))
      (tstamp 5D22387F))
    (comp (ref J1)
      (value Conn_01x06_Female)
      (footprint Connector_JST:JST_SH_SM06B-SRSS-TB_1x06-1MP_P1.00mm_Horizontal)
      (datasheet ~)
      (libsource (lib Connector) (part Conn_01x06_Female) (description "Generic connector, single row, 01x06, script generated (kicad-library-utils/schlib/autogen/connector/)"))
      (sheetpath (names /) (tstamps /))
      (tstamp 5D286E2F))
    (comp (ref C2)
      (value 100nF)
      (footprint Capacitor_SMD:C_1206_3216Metric_Pad1.42x1.75mm_HandSolder)
      (datasheet ~)
      (libsource (lib Device) (part CP) (description "Polarized capacitor"))
      (sheetpath (names /) (tstamps /))
      (tstamp 5D2992F7)))
  (libparts
    (libpart (lib Attiny85_Arduino) (part ATtiny25V-10SU_Arduino)
      (aliases
        (alias ATtiny25-20SU_copy)
        (alias ATtiny45V-10SU_copy)
        (alias ATtiny45-20SU_copy)
        (alias ATtiny85V-10SU_copy)
        (alias ATtiny85-20SU_copy))
      (description "10MHz, 2kB Flash, 128B SRAM, 128B EEPROM, debugWIRE, SOIJ-8")
      (docs http://ww1.microchip.com/downloads/en/DeviceDoc/atmel-2586-avr-8-bit-microcontroller-attiny25-attiny45-attiny85_datasheet.pdf)
      (footprints
        (fp SOIJ*5.3x5.3mm*P1.27mm*))
      (fields
        (field (name Reference) U)
        (field (name Value) ATtiny25V-10SU_Arduino)
        (field (name Footprint) Package_SO:SOIJ-8_5.3x5.3mm_P1.27mm))
      (pins
        (pin (num 1) (name ~RESET~/PB5/D5) (type 3state))
        (pin (num 2) (name XTAL1/PB3/D3) (type 3state))
        (pin (num 3) (name XTAL2/PB4/D4) (type 3state))
        (pin (num 4) (name GND) (type power_in))
        (pin (num 5) (name AREF/PB0/D0) (type 3state))
        (pin (num 6) (name PB1/D1/PWM) (type 3state))
        (pin (num 7) (name PB2/D2/PWM) (type 3state))
        (pin (num 8) (name VCC) (type power_in))))
    (libpart (lib Connector) (part Conn_01x06_Female)
      (description "Generic connector, single row, 01x06, script generated (kicad-library-utils/schlib/autogen/connector/)")
      (docs ~)
      (footprints
        (fp Connector*:*_1x??_*))
      (fields
        (field (name Reference) J)
        (field (name Value) Conn_01x06_Female))
      (pins
        (pin (num 1) (name Pin_1) (type passive))
        (pin (num 2) (name Pin_2) (type passive))
        (pin (num 3) (name Pin_3) (type passive))
        (pin (num 4) (name Pin_4) (type passive))
        (pin (num 5) (name Pin_5) (type passive))
        (pin (num 6) (name Pin_6) (type passive))))
    (libpart (lib Device) (part Battery)
      (description "Multiple-cell battery")
      (docs ~)
      (fields
        (field (name Reference) BT)
        (field (name Value) Battery))
      (pins
        (pin (num 1) (name +) (type passive))
        (pin (num 2) (name -) (type passive))))
    (libpart (lib Device) (part CP)
      (description "Polarized capacitor")
      (docs ~)
      (footprints
        (fp CP_*))
      (fields
        (field (name Reference) C)
        (field (name Value) CP))
      (pins
        (pin (num 1) (name ~) (type passive))
        (pin (num 2) (name ~) (type passive)))))
  (libraries
    (library (logical Attiny85_Arduino)
      (uri E:\CAD\deskfan\ee\board-1\MCU_Microchip_ATtiny_Arduino.lib))
    (library (logical Connector)
      (uri "C:\\Program Files\\KiCad\\share\\kicad\\library/Connector.lib"))
    (library (logical Device)
      (uri "C:\\Program Files\\KiCad\\share\\kicad\\library/Device.lib")))
  (nets
    (net (code 1) (name D2)
      (node (ref U1) (pin 7))
      (node (ref J1) (pin 5)))
    (net (code 2) (name "Net-(U1-Pad2)")
      (node (ref U1) (pin 2)))
    (net (code 3) (name "Net-(U1-Pad3)")
      (node (ref U1) (pin 3)))
    (net (code 4) (name "Net-(BT1-Pad1)")
      (node (ref J1) (pin 2))
      (node (ref BT1) (pin 1))
      (node (ref U1) (pin 8))
      (node (ref C2) (pin 1)))
    (net (code 5) (name "Net-(BT1-Pad2)")
      (node (ref BT1) (pin 2))
      (node (ref U1) (pin 4))
      (node (ref J1) (pin 1))
      (node (ref C1) (pin 2))
      (node (ref C2) (pin 2)))
    (net (code 6) (name D5)
      (node (ref C1) (pin 1))
      (node (ref J1) (pin 6))
      (node (ref U1) (pin 1)))
    (net (code 7) (name D0)
      (node (ref U1) (pin 5))
      (node (ref J1) (pin 3)))
    (net (code 8) (name D1)
      (node (ref U1) (pin 6))
      (node (ref J1) (pin 4)))))